<?xml version="1.0" encoding="UTF-8" standalone="no"?>
<svg
   width="64"
   height="64"
   version="1.1"
   id="svg4"
   xmlns="http://www.w3.org/2000/svg"
   xmlns:svg="http://www.w3.org/2000/svg">
  <defs
     id="defs4" />
  <circle
     cx="32"
     cy="32"
     stroke="#ffffff"
     stroke-width="12"
     fill-opacity="0"
     id="circle1"
     r="18"
     style="fill:#000000;fill-opacity:0;stroke:#ee5800;stroke-opacity:1" />
  <circle
     cx="32"
     cy="32"
     r="24"
     stroke="#000000"
     stroke-width="3"
     fill-opacity="0"
     id="circle2"
     style="fill:#ffffff" />
  <circle
     cx="32"
     cy="32"
     r="20"
     stroke="#000000"
     stroke-width="1"
     fill-opacity="0"
     id="circle3" />
  <circle
     cx="32"
     cy="32.025841"
     r="18.025841"
     stroke="#000000"
     stroke-width="0.901292"
     fill-opacity="0"
     id="circle3-1" />
  <circle
     cx="32"
     cy="32"
     r="12"
     stroke="#000000"
     stroke-width="3"
     fill-opacity="0"
     id="circle4" />
</svg>
