{
    "B1": ["Ahmed El-Hababi", "Sultan of Morocco"],
    "G1": ["Mohammad Benayoun", "Sultan of Maghreb"],
    "B6": ["Bruno Aragon"],
    "C6": ["Carlos Pajarero"],
    "D6": ["Denis Briones"],
    "E6": ["Elias Hidalgo"],
    "B7": ["Borja Batanero"],
    "E7": ["Emilio Gallego"]
}