{
    "A1": ["Harp seal"],
    "B1": ["West african lungfish"],
    "C1": ["Ray"],
    "D1": ["Narwhal"],
    "E1": ["Wels Catfish"],
    "F1": ["Ray"],
    "G1": ["West african lungfish"],
    "H1": ["Harp seal"],
    "A2": ["Common carp"],
    "B2": ["Common carp"],
    "C2": ["Common carp"],
    "D2": ["Common carp"],
    "E2": ["Common carp"],
    "F2": ["Common carp"],
    "G2": ["Common carp"],
    "H2": ["Common carp"]
}