[gd_scene load_steps=5 format=3 uid="uid://ue0j511bgvmk"]

[ext_resource type="Script" path="res://codebase/graveyard/Interaction.gd" id="1_6fnx8"]

[sub_resource type="SystemFont" id="SystemFont_u4u1v"]
subpixel_positioning = 0

[sub_resource type="LabelSettings" id="LabelSettings_rn13f"]
font = SubResource("SystemFont_u4u1v")
font_size = 80

[sub_resource type="CompressedTexture2D" id="CompressedTexture2D_4osk1"]

[node name="Interaction" type="Control"]
layout_mode = 3
anchors_preset = 15
anchor_right = 1.0
anchor_bottom = 1.0
grow_horizontal = 2
grow_vertical = 2
script = ExtResource("1_6fnx8")

[node name="BG" type="ColorRect" parent="."]
layout_mode = 1
anchors_preset = 15
anchor_right = 1.0
anchor_bottom = 1.0
grow_horizontal = 2
grow_vertical = 2
color = Color(0, 0, 0, 1)

[node name="Text" type="Label" parent="."]
visible = false
layout_mode = 1
anchors_preset = 8
anchor_left = 0.5
anchor_top = 0.5
anchor_right = 0.5
anchor_bottom = 0.5
offset_left = -73.5
offset_top = -24.5
offset_right = 73.5
offset_bottom = 24.5
grow_horizontal = 2
grow_vertical = 2
text = "Example text
To see how it looks"
label_settings = SubResource("LabelSettings_rn13f")
horizontal_alignment = 1

[node name="Image" type="TextureRect" parent="."]
visible = false
layout_mode = 1
anchors_preset = 15
anchor_right = 1.0
anchor_bottom = 1.0
grow_horizontal = 2
grow_vertical = 2
texture = SubResource("CompressedTexture2D_4osk1")
expand_mode = 5
stretch_mode = 5

[node name="Video" type="VideoStreamPlayer" parent="."]
visible = false
layout_mode = 1
anchors_preset = 15
anchor_right = 1.0
anchor_bottom = 1.0
grow_horizontal = 2
grow_vertical = 2

[node name="Timer" type="Timer" parent="."]
one_shot = true

[connection signal="finished" from="Video" to="." method="_on_video_finished"]
[connection signal="timeout" from="Timer" to="." method="_on_timer_timeout"]
